        ## Commandline options
$VAR1 = {
          'mode' => '1',
          'port' => '21',
          'host' => 'xib.services.logica.com',
          'folder' => 'to_prod',
          'crypt' => 'TSZnU0J2aQ==',
          'critical' => 10,
          'password' => 1,
          'warning' => 5,
          'user' => 's010_catos'
        };


         ## The password is: >> M&gSBvi <<

        ## FTP: full listing
$VAR1 = [
          'total 282',
          'drwxrwxrwx   0 --NA--   --NA--            0 May 13  2014 .',
          'drwxrwxrwx   0 --NA--   --NA--            0 May 12  2014 ..',
          '-rw-rw-rw-   0 --NA--   --NA--          559 May 27 09:24 45448183',
          '-rw-rw-rw-   0 --NA--   --NA--          669 May 27 09:24 45448184',
          '-rw-rw-rw-   0 --NA--   --NA--          669 May 27 09:24 45448185',
          '-rw-rw-rw-   0 --NA--   --NA--          755 May 27 09:25 45448345',
          '-rw-rw-rw-   0 --NA--   --NA--          478 May 27 09:25 45448572',
          '-rw-rw-rw-   0 --NA--   --NA--          876 May 27 09:26 45448705',
          '-rw-rw-rw-   0 --NA--   --NA--          693 May 27 09:27 45448983',
          '-rw-rw-rw-   0 --NA--   --NA--          773 May 27 09:27 45448996',
          '-rw-rw-rw-   0 --NA--   --NA--          706 May 27 09:28 45449084',
          '-rw-rw-rw-   0 --NA--   --NA--          706 May 27 09:28 45449085',
          '-rw-rw-rw-   0 --NA--   --NA--          706 May 27 09:28 45449086',
          '-rw-rw-rw-   0 --NA--   --NA--          706 May 27 09:28 45449087',
          '-rw-rw-rw-   0 --NA--   --NA--          706 May 27 09:28 45449088',
          '-rw-rw-rw-   0 --NA--   --NA--          667 May 27 09:28 45449089',
          '-rw-rw-rw-   0 --NA--   --NA--          706 May 27 09:28 45449090',
          '-rw-rw-rw-   0 --NA--   --NA--          759 May 27 09:28 45449091',
          '-rw-rw-rw-   0 --NA--   --NA--          613 May 27 09:29 45449229',
          '-rw-rw-rw-   0 --NA--   --NA--          773 May 27 09:29 45449231',
          '-rw-rw-rw-   0 --NA--   --NA--          707 May 27 09:30 45449295',
          '-rw-rw-rw-   0 --NA--   --NA--          577 May 27 09:30 45449634',
          '-rw-rw-rw-   0 --NA--   --NA--          577 May 27 09:30 45449635',
          '-rw-rw-rw-   0 --NA--   --NA--          577 May 27 09:30 45449636',
          '-rw-rw-rw-   0 --NA--   --NA--          559 May 27 09:30 45449637',
          '-rw-rw-rw-   0 --NA--   --NA--         1042 May 27 09:31 45449936',
          '-rw-rw-rw-   0 --NA--   --NA--          722 May 27 09:32 45450162',
          '-rw-rw-rw-   0 --NA--   --NA--          722 May 27 09:32 45450169',
          '-rw-rw-rw-   0 --NA--   --NA--          722 May 27 09:32 45450171',
          '-rw-rw-rw-   0 --NA--   --NA--          722 May 27 09:32 45450173',
          '-rw-rw-rw-   0 --NA--   --NA--          722 May 27 09:32 45450177',
          '-rw-rw-rw-   0 --NA--   --NA--          722 May 27 09:32 45450179',
          '-rw-rw-rw-   0 --NA--   --NA--         2615 May 27 09:33 45450298',
          '-rw-rw-rw-   0 --NA--   --NA--          722 May 27 09:35 45450755',
          '-rw-rw-rw-   0 --NA--   --NA--          722 May 27 09:35 45450757',
          '-rw-rw-rw-   0 --NA--   --NA--          722 May 27 09:35 45450764',
          '-rw-rw-rw-   0 --NA--   --NA--          722 May 27 09:35 45450766',
          '-rw-rw-rw-   0 --NA--   --NA--          722 May 27 09:35 45450768',
          '-rw-rw-rw-   0 --NA--   --NA--         6577 May 27 09:36 45451113',
          '-rw-rw-rw-   0 --NA--   --NA--          356 May 27 09:36 45451163',
          '-rw-rw-rw-   0 --NA--   --NA--          736 May 27 09:37 45451283',
          '-rw-rw-rw-   0 --NA--   --NA--          853 May 27 09:37 45451411',
          '-rw-rw-rw-   0 --NA--   --NA--          704 May 27 09:38 45451436',
          '-rw-rw-rw-   0 --NA--   --NA--          704 May 27 09:38 45451441',
          '-rw-rw-rw-   0 --NA--   --NA--          704 May 27 09:38 45451443',
          '-rw-rw-rw-   0 --NA--   --NA--          753 May 27 09:38 45451513',
          '-rw-rw-rw-   0 --NA--   --NA--          704 May 27 09:38 45451514',
          '-rw-rw-rw-   0 --NA--   --NA--          667 May 27 09:38 45451515',
          '-rw-rw-rw-   0 --NA--   --NA--          753 May 27 09:38 45451516',
          '-rw-rw-rw-   0 --NA--   --NA--          679 May 27 09:38 45451517',
          '-rw-rw-rw-   0 --NA--   --NA--          933 May 27 09:39 45451684',
          '-rw-rw-rw-   0 --NA--   --NA--          768 May 27 09:40 45451738',
          '-rw-rw-rw-   0 --NA--   --NA--          745 May 27 09:41 45452064',
          '-rw-rw-rw-   0 --NA--   --NA--          745 May 27 09:41 45452068',
          '-rw-rw-rw-   0 --NA--   --NA--          693 May 27 09:41 45452159',
          '-rw-rw-rw-   0 --NA--   --NA--          933 May 27 09:41 45452161',
          '-rw-rw-rw-   0 --NA--   --NA--          773 May 27 09:41 45452168',
          '-rw-rw-rw-   0 --NA--   --NA--          773 May 27 09:41 45452184',
          '-rw-rw-rw-   0 --NA--   --NA--          706 May 27 09:43 45452361',
          '-rw-rw-rw-   0 --NA--   --NA--          711 May 27 09:43 45452363',
          '-rw-rw-rw-   0 --NA--   --NA--          773 May 27 09:43 45452531',
          '-rw-rw-rw-   0 --NA--   --NA--          679 May 27 09:44 45452647',
          '-rw-rw-rw-   0 --NA--   --NA--          653 May 27 09:44 45452648',
          '-rw-rw-rw-   0 --NA--   --NA--          753 May 27 09:44 45452649',
          '-rw-rw-rw-   0 --NA--   --NA--          702 May 27 09:45 45452663',
          '-rw-rw-rw-   0 --NA--   --NA--          702 May 27 09:45 45452670',
          '-rw-rw-rw-   0 --NA--   --NA--          577 May 27 09:46 45453241',
          '-rw-rw-rw-   0 --NA--   --NA--          577 May 27 09:46 45453242',
          '-rw-rw-rw-   0 --NA--   --NA--          773 May 27 09:47 45453362',
          '-rw-rw-rw-   0 --NA--   --NA--         3920 May 27 09:47 45453366',
          '-rw-rw-rw-   0 --NA--   --NA--          704 May 27 09:48 45453385',
          '-rw-rw-rw-   0 --NA--   --NA--          704 May 27 09:48 45453390',
          '-rw-rw-rw-   0 --NA--   --NA--          704 May 27 09:48 45453392',
          '-rw-rw-rw-   0 --NA--   --NA--          704 May 27 09:48 45453394',
          '-rw-rw-rw-   0 --NA--   --NA--          768 May 27 09:48 45453396',
          '-rw-rw-rw-   0 --NA--   --NA--          743 May 27 09:49 45453540',
          '-rw-rw-rw-   0 --NA--   --NA--          768 May 27 09:49 45453542',
          '-rw-rw-rw-   0 --NA--   --NA--          693 May 27 09:49 45453667',
          '-rw-rw-rw-   0 --NA--   --NA--          708 May 27 09:50 45453680',
          '-rw-rw-rw-   0 --NA--   --NA--          773 May 27 09:51 45454136',
          '-rw-rw-rw-   0 --NA--   --NA--          773 May 27 09:51 45454177',
          '-rw-rw-rw-   0 --NA--   --NA--          489 May 27 09:53 45454430',
          '-rw-rw-rw-   0 --NA--   --NA--          433 May 27 09:54 45454682',
          '-rw-rw-rw-   0 --NA--   --NA--          433 May 27 09:54 45454684',
          '-rw-rw-rw-   0 --NA--   --NA--          622 May 27 09:54 45454686',
          '-rw-rw-rw-   0 --NA--   --NA--          464 May 27 09:54 45454688',
          '-rw-rw-rw-   0 --NA--   --NA--          464 May 27 09:54 45454690',
          '-rw-rw-rw-   0 --NA--   --NA--          464 May 27 09:54 45454692',
          '-rw-rw-rw-   0 --NA--   --NA--          521 May 27 09:54 45454701',
          '-rw-rw-rw-   0 --NA--   --NA--          521 May 27 09:54 45454706',
          '-rw-rw-rw-   0 --NA--   --NA--          684 May 27 09:55 45454788',
          '-rw-rw-rw-   0 --NA--   --NA--          773 May 27 09:55 45455107',
          '-rw-rw-rw-   0 --NA--   --NA--          773 May 27 09:55 45455112',
          '-rw-rw-rw-   0 --NA--   --NA--          702 May 27 09:56 45455132',
          '-rw-rw-rw-   0 --NA--   --NA--          702 May 27 09:56 45455134',
          '-rw-rw-rw-   0 --NA--   --NA--          702 May 27 09:56 45455139',
          '-rw-rw-rw-   0 --NA--   --NA--          702 May 27 09:56 45455143',
          '-rw-rw-rw-   0 --NA--   --NA--          702 May 27 09:56 45455145',
          '-rw-rw-rw-   0 --NA--   --NA--          702 May 27 09:56 45455147',
          '-rw-rw-rw-   0 --NA--   --NA--         1132 May 27 09:56 45455160',
          '-rw-rw-rw-   0 --NA--   --NA--          680 May 27 09:56 45455341',
          '-rw-rw-rw-   0 --NA--   --NA--          658 May 27 09:56 45455343',
          '-rw-rw-rw-   0 --NA--   --NA--          649 May 27 09:56 45455344',
          '-rw-rw-rw-   0 --NA--   --NA--          700 May 27 09:56 45455345',
          '-rw-rw-rw-   0 --NA--   --NA--          711 May 27 09:59 45455650',
          '-rw-rw-rw-   0 --NA--   --NA--          356 May 27 09:59 45455729',
          '-rw-rw-rw-   0 --NA--   --NA--          565 May 27 10:01 45456316',
          '-rw-rw-rw-   0 --NA--   --NA--          773 May 27 10:01 45456421',
          '-rw-rw-rw-   0 --NA--   --NA--          740 May 27 10:03 45456768',
          '-rw-rw-rw-   0 --NA--   --NA--          740 May 27 10:03 45456788',
          '-rw-rw-rw-   0 --NA--   --NA--          740 May 27 10:03 45456798',
          '-rw-rw-rw-   0 --NA--   --NA--          444 May 27 10:04 45456962',
          '-rw-rw-rw-   0 --NA--   --NA--          444 May 27 10:04 45456964',
          '-rw-rw-rw-   0 --NA--   --NA--          444 May 27 10:04 45456971',
          '-rw-rw-rw-   0 --NA--   --NA--          444 May 27 10:04 45456986',
          '-rw-rw-rw-   0 --NA--   --NA--          444 May 27 10:04 45457003',
          '-rw-rw-rw-   0 --NA--   --NA--          444 May 27 10:04 45457012',
          '-rw-rw-rw-   0 --NA--   --NA--          444 May 27 10:04 45457020',
          '-rw-rw-rw-   0 --NA--   --NA--          444 May 27 10:04 45457027',
          '-rw-rw-rw-   0 --NA--   --NA--          444 May 27 10:04 45457037',
          '-rw-rw-rw-   0 --NA--   --NA--          444 May 27 10:04 45457046',
          '-rw-rw-rw-   0 --NA--   --NA--          444 May 27 10:04 45457058',
          '-rw-rw-rw-   0 --NA--   --NA--          444 May 27 10:04 45457061',
          '-rw-rw-rw-   0 --NA--   --NA--          447 May 27 10:04 45457064',
          '-rw-rw-rw-   0 --NA--   --NA--          447 May 27 10:04 45457067',
          '-rw-rw-rw-   0 --NA--   --NA--          447 May 27 10:04 45457071',
          '-rw-rw-rw-   0 --NA--   --NA--          447 May 27 10:04 45457075',
          '-rw-rw-rw-   0 --NA--   --NA--          447 May 27 10:04 45457085',
          '-rw-rw-rw-   0 --NA--   --NA--          447 May 27 10:04 45457091',
          '-rw-rw-rw-   0 --NA--   --NA--          447 May 27 10:04 45457101',
          '-rw-rw-rw-   0 --NA--   --NA--          447 May 27 10:04 45457108',
          '-rw-rw-rw-   0 --NA--   --NA--          447 May 27 10:04 45457111',
          '-rw-rw-rw-   0 --NA--   --NA--          447 May 27 10:04 45457113',
          '-rw-rw-rw-   0 --NA--   --NA--          447 May 27 10:04 45457117',
          '-rw-rw-rw-   0 --NA--   --NA--          773 May 27 10:05 45457733',
          '-rw-rw-rw-   0 --NA--   --NA--          356 May 27 10:06 45458040',
          '-rw-rw-rw-   0 --NA--   --NA--          866 May 27 10:08 45458293',
          '-rw-rw-rw-   0 --NA--   --NA--          718 May 27 10:09 45458469',
          '-rw-rw-rw-   0 --NA--   --NA--          755 May 27 10:12 45459463',
          '-rw-rw-rw-   0 --NA--   --NA--          751 May 27 10:13 45459588',
          '-rw-rw-rw-   0 --NA--   --NA--          751 May 27 10:13 45459589',
          '-rw-rw-rw-   0 --NA--   --NA--          589 May 27 10:13 45459590',
          '-rw-rw-rw-   0 --NA--   --NA--          751 May 27 10:13 45459591',
          '-rw-rw-rw-   0 --NA--   --NA--          704 May 27 10:13 45459592',
          '-rw-rw-rw-   0 --NA--   --NA--          512 May 27 10:14 45459845',
          '-rw-rw-rw-   0 --NA--   --NA--          511 May 27 10:14 45459847',
          '-rw-rw-rw-   0 --NA--   --NA--          517 May 27 10:14 45459850',
          '-rw-rw-rw-   0 --NA--   --NA--          433 May 27 10:14 45459860',
          '-rw-rw-rw-   0 --NA--   --NA--          433 May 27 10:14 45459865',
          '-rw-rw-rw-   0 --NA--   --NA--          535 May 27 10:14 45459867',
          '-rw-rw-rw-   0 --NA--   --NA--          713 May 27 10:15 45459943',
          '-rw-rw-rw-   0 --NA--   --NA--          613 May 27 10:15 45460292',
          '-rw-rw-rw-   0 --NA--   --NA--          740 May 27 10:16 45460335',
          '-rw-rw-rw-   0 --NA--   --NA--          740 May 27 10:16 45460340',
          '-rw-rw-rw-   0 --NA--   --NA--          740 May 27 10:16 45460342',
          '-rw-rw-rw-   0 --NA--   --NA--          740 May 27 10:16 45460343',
          '-rw-rw-rw-   0 --NA--   --NA--          740 May 27 10:16 45460345',
          '-rw-rw-rw-   0 --NA--   --NA--         1514 May 27 10:16 45460374',
          '-rw-rw-rw-   0 --NA--   --NA--          694 May 27 10:17 45460425',
          '-rw-rw-rw-   0 --NA--   --NA--          694 May 27 10:17 45460426',
          '-rw-rw-rw-   0 --NA--   --NA--          577 May 27 10:17 45460427',
          '-rw-rw-rw-   0 --NA--   --NA--          753 May 27 10:17 45460428',
          '-rw-rw-rw-   0 --NA--   --NA--          660 May 27 10:17 45460464',
          '-rw-rw-rw-   0 --NA--   --NA--          907 May 27 10:17 45460611',
          '-rw-rw-rw-   0 --NA--   --NA--          773 May 27 10:17 45460636',
          '-rw-rw-rw-   0 --NA--   --NA--          773 May 27 10:19 45461057',
          '-rw-rw-rw-   0 --NA--   --NA--          613 May 27 10:19 45461059',
          '-rw-rw-rw-   0 --NA--   --NA--          866 May 27 10:21 45461389',
          '-rw-rw-rw-   0 --NA--   --NA--          773 May 27 10:21 45461531',
          '-rw-rw-rw-   0 --NA--   --NA--          760 May 27 09:15 9205-000211662038',
          '-rw-rw-rw-   0 --NA--   --NA--          920 May 27 09:15 9205-000211662039',
          '-rw-rw-rw-   0 --NA--   --NA--         1240 May 27 09:21 9205-000211662076',
          '-rw-rw-rw-   0 --NA--   --NA--          920 May 27 09:21 9205-000211662077',
          '-rw-rw-rw-   0 --NA--   --NA--         1000 May 27 09:21 9205-000211662078',
          '-rw-rw-rw-   0 --NA--   --NA--         1160 May 27 09:21 9205-000211662079',
          '-rw-rw-rw-   0 --NA--   --NA--          760 May 27 09:23 9205-000211664635',
          '-rw-rw-rw-   0 --NA--   --NA--          920 May 27 09:23 9205-000211664636',
          '-rw-rw-rw-   0 --NA--   --NA--          920 May 27 09:23 9205-000211664637',
          '-rw-rw-rw-   0 --NA--   --NA--          920 May 27 09:23 9205-000211664638',
          '-rw-rw-rw-   0 --NA--   --NA--          920 May 27 09:25 9205-000211664649',
          '-rw-rw-rw-   0 --NA--   --NA--         1000 May 27 09:25 9205-000211664651',
          '-rw-rw-rw-   0 --NA--   --NA--          920 May 27 09:27 9205-000211664654',
          '-rw-rw-rw-   0 --NA--   --NA--          920 May 27 09:27 9205-000211664655',
          '-rw-rw-rw-   0 --NA--   --NA--          840 May 27 09:27 9205-000211664656',
          '-rw-rw-rw-   0 --NA--   --NA--          920 May 27 09:27 9205-000211664657',
          '-rw-rw-rw-   0 --NA--   --NA--         1080 May 27 09:27 9205-000211664658',
          '-rw-rw-rw-   0 --NA--   --NA--          840 May 27 09:27 9205-000211664660',
          '-rw-rw-rw-   0 --NA--   --NA--          920 May 27 09:27 9205-000211664661',
          '-rw-rw-rw-   0 --NA--   --NA--          840 May 27 09:27 9205-000211664662',
          '-rw-rw-rw-   0 --NA--   --NA--          840 May 27 09:27 9205-000211664663',
          '-rw-rw-rw-   0 --NA--   --NA--         1000 May 27 09:27 9205-000211664664',
          '-rw-rw-rw-   0 --NA--   --NA--         1000 May 27 09:31 9205-000211666582',
          '-rw-rw-rw-   0 --NA--   --NA--          920 May 27 09:31 9205-000211666583',
          '-rw-rw-rw-   0 --NA--   --NA--          840 May 27 09:31 9205-000211666584',
          '-rw-rw-rw-   0 --NA--   --NA--         1000 May 27 09:31 9205-000211666585',
          '-rw-rw-rw-   0 --NA--   --NA--          920 May 27 09:31 9205-000211666586',
          '-rw-rw-rw-   0 --NA--   --NA--         1000 May 27 09:31 9205-000211666587',
          '-rw-rw-rw-   0 --NA--   --NA--          760 May 27 09:31 9205-000211666588',
          '-rw-rw-rw-   0 --NA--   --NA--          760 May 27 09:33 9205-000211667410',
          '-rw-rw-rw-   0 --NA--   --NA--         1080 May 27 09:33 9205-000211667411',
          '-rw-rw-rw-   0 --NA--   --NA--          760 May 27 09:33 9205-000211667412',
          '-rw-rw-rw-   0 --NA--   --NA--         1000 May 27 09:33 9205-000211667413',
          '-rw-rw-rw-   0 --NA--   --NA--         1000 May 27 09:33 9205-000211667414',
          '-rw-rw-rw-   0 --NA--   --NA--         1000 May 27 09:33 9205-000211667415',
          '-rw-rw-rw-   0 --NA--   --NA--         1000 May 27 09:33 9205-000211667416',
          '-rw-rw-rw-   0 --NA--   --NA--         1000 May 27 09:35 9205-000211667423',
          '-rw-rw-rw-   0 --NA--   --NA--          840 May 27 09:37 9205-000211667429',
          '-rw-rw-rw-   0 --NA--   --NA--          840 May 27 09:37 9205-000211667430',
          '-rw-rw-rw-   0 --NA--   --NA--          840 May 27 09:37 9205-000211667431',
          '-rw-rw-rw-   0 --NA--   --NA--          840 May 27 09:37 9205-000211667432',
          '-rw-rw-rw-   0 --NA--   --NA--          840 May 27 09:37 9205-000211667433',
          '-rw-rw-rw-   0 --NA--   --NA--          920 May 27 09:37 9205-000211667434',
          '-rw-rw-rw-   0 --NA--   --NA--          920 May 27 09:41 9205-000211667463',
          '-rw-rw-rw-   0 --NA--   --NA--          840 May 27 09:45 9205-000211667489',
          '-rw-rw-rw-   0 --NA--   --NA--          920 May 27 09:45 9205-000211667490',
          '-rw-rw-rw-   0 --NA--   --NA--         1000 May 27 09:45 9205-000211667491',
          '-rw-rw-rw-   0 --NA--   --NA--         1000 May 27 09:45 9205-000211667492',
          '-rw-rw-rw-   0 --NA--   --NA--          920 May 27 09:45 9205-000211667493',
          '-rw-rw-rw-   0 --NA--   --NA--          920 May 27 09:45 9205-000211667494',
          '-rw-rw-rw-   0 --NA--   --NA--          920 May 27 09:47 9205-000211667499',
          '-rw-rw-rw-   0 --NA--   --NA--          920 May 27 09:47 9205-000211670401',
          '-rw-rw-rw-   0 --NA--   --NA--         1000 May 27 09:49 9205-000211670422',
          '-rw-rw-rw-   0 --NA--   --NA--          920 May 27 09:49 9205-000211670423',
          '-rw-rw-rw-   0 --NA--   --NA--          920 May 27 09:49 9205-000211670425',
          '-rw-rw-rw-   0 --NA--   --NA--          920 May 27 09:51 9205-000211670429',
          '-rw-rw-rw-   0 --NA--   --NA--         1000 May 27 09:51 9205-000211670430',
          '-rw-rw-rw-   0 --NA--   --NA--         1000 May 27 09:51 9205-000211670431',
          '-rw-rw-rw-   0 --NA--   --NA--         1000 May 27 09:51 9205-000211670432',
          '-rw-rw-rw-   0 --NA--   --NA--          920 May 27 09:51 9205-000211670433',
          '-rw-rw-rw-   0 --NA--   --NA--          920 May 27 09:51 9205-000211670434',
          '-rw-rw-rw-   0 --NA--   --NA--          920 May 27 09:53 9205-000211670450',
          '-rw-rw-rw-   0 --NA--   --NA--          840 May 27 09:53 9205-000211670451',
          '-rw-rw-rw-   0 --NA--   --NA--          840 May 27 09:53 9205-000211670452',
          '-rw-rw-rw-   0 --NA--   --NA--          840 May 27 09:53 9205-000211670453',
          '-rw-rw-rw-   0 --NA--   --NA--          840 May 27 09:53 9205-000211670454',
          '-rw-rw-rw-   0 --NA--   --NA--          760 May 27 09:53 9205-000211670455',
          '-rw-rw-rw-   0 --NA--   --NA--          840 May 27 09:53 9205-000211670457',
          '-rw-rw-rw-   0 --NA--   --NA--          920 May 27 09:53 9205-000211670458',
          '-rw-rw-rw-   0 --NA--   --NA--         1000 May 27 09:55 9205-000211670470',
          '-rw-rw-rw-   0 --NA--   --NA--          920 May 27 09:55 9205-000211670471',
          '-rw-rw-rw-   0 --NA--   --NA--          920 May 27 09:57 9205-000211670486',
          '-rw-rw-rw-   0 --NA--   --NA--          920 May 27 09:59 9205-000211670498',
          '-rw-rw-rw-   0 --NA--   --NA--         1000 May 27 09:59 9205-000211670499',
          '-rw-rw-rw-   0 --NA--   --NA--          920 May 27 09:59 9205-000211670500',
          '-rw-rw-rw-   0 --NA--   --NA--          920 May 27 09:59 9205-000211673001',
          '-rw-rw-rw-   0 --NA--   --NA--         1080 May 27 09:59 9205-000211673002',
          '-rw-rw-rw-   0 --NA--   --NA--          920 May 27 09:59 9205-000211673003',
          '-rw-rw-rw-   0 --NA--   --NA--          920 May 27 10:01 9205-000211673017',
          '-rw-rw-rw-   0 --NA--   --NA--          840 May 27 10:01 9205-000211673018',
          '-rw-rw-rw-   0 --NA--   --NA--          840 May 27 10:01 9205-000211673019',
          '-rw-rw-rw-   0 --NA--   --NA--         1160 May 27 10:01 9205-000211673020',
          '-rw-rw-rw-   0 --NA--   --NA--          760 May 27 10:01 9205-000211673021',
          '-rw-rw-rw-   0 --NA--   --NA--          760 May 27 10:01 9205-000211673023',
          '-rw-rw-rw-   0 --NA--   --NA--          840 May 27 10:03 9205-000211673037',
          '-rw-rw-rw-   0 --NA--   --NA--          920 May 27 10:03 9205-000211673038',
          '-rw-rw-rw-   0 --NA--   --NA--         1080 May 27 10:03 9205-000211673039',
          '-rw-rw-rw-   0 --NA--   --NA--         1000 May 27 10:03 9205-000211673040',
          '-rw-rw-rw-   0 --NA--   --NA--          840 May 27 10:03 9205-000211673041',
          '-rw-rw-rw-   0 --NA--   --NA--         1000 May 27 10:03 9205-000211673042',
          '-rw-rw-rw-   0 --NA--   --NA--          920 May 27 10:03 9205-000211673043',
          '-rw-rw-rw-   0 --NA--   --NA--          920 May 27 10:05 9205-000211673068',
          '-rw-rw-rw-   0 --NA--   --NA--          920 May 27 10:05 9205-000211673069',
          '-rw-rw-rw-   0 --NA--   --NA--          840 May 27 10:05 9205-000211673071',
          '-rw-rw-rw-   0 --NA--   --NA--          920 May 27 10:05 9205-000211673072',
          '-rw-rw-rw-   0 --NA--   --NA--          920 May 27 10:05 9205-000211673073',
          '-rw-rw-rw-   0 --NA--   --NA--         1080 May 27 10:05 9205-000211673074',
          '-rw-rw-rw-   0 --NA--   --NA--         1080 May 27 10:09 9205-000211673093',
          '-rw-rw-rw-   0 --NA--   --NA--          920 May 27 10:09 9205-000211673094',
          '-rw-rw-rw-   0 --NA--   --NA--         1080 May 27 10:11 9205-000211676412',
          '-rw-rw-rw-   0 --NA--   --NA--         1000 May 27 10:11 9205-000211676413',
          '-rw-rw-rw-   0 --NA--   --NA--         2120 May 27 10:11 9205-000211676414',
          '-rw-rw-rw-   0 --NA--   --NA--         1080 May 27 10:11 9205-000211676415',
          '-rw-rw-rw-   0 --NA--   --NA--          920 May 27 10:11 9205-000211676416',
          '-rw-rw-rw-   0 --NA--   --NA--         1000 May 27 10:15 9205-000211676439',
          '-rw-rw-rw-   0 --NA--   --NA--          840 May 27 10:15 9205-000211676440',
          '-rw-rw-rw-   0 --NA--   --NA--         1000 May 27 10:19 9205-000211676468',
          '-rw-rw-rw-   0 --NA--   --NA--          920 May 27 10:21 9205-000211676474',
          '-rw-rw-rw-   0 --NA--   --NA--          840 May 27 10:21 9205-000211676475',
          '-rw-rw-rw-   0 --NA--   --NA--         1000 May 27 10:21 9205-000211676476',
          '-rw-rw-rw-   0 --NA--   --NA--          840 May 27 10:21 9205-000211676478',
          '-rw-rw-rw-   0 --NA--   --NA--          920 May 27 10:21 9205-000211676479',
          '-rw-rw-rw-   0 --NA--   --NA--          920 May 27 10:21 9205-000211676480'
        ];


        ## FTP message: 'ls'
List started
List completed


        ## FTP message: 'mdtm'
20150527092444


        ## FTP message: 'ls'
20150527092444


        ## FTP message: 'mdtm'
20150527092444


        ## FTP message: 'ls'
20150527092444


        ## FTP message: 'mdtm'
20150527092444


        ## FTP message: 'ls'
20150527092444


        ## FTP message: 'mdtm'
20150527092503


        ## FTP message: 'ls'
20150527092503


        ## FTP message: 'mdtm'
20150527092548


        ## FTP message: 'ls'
20150527092548


        ## FTP message: 'mdtm'
20150527092625


        ## FTP message: 'ls'
20150527092625


        ## FTP message: 'mdtm'
20150527092747


        ## FTP message: 'ls'
20150527092747


        ## FTP message: 'mdtm'
20150527092751


        ## FTP message: 'ls'
20150527092751


        ## FTP message: 'mdtm'
20150527092844


        ## FTP message: 'ls'
20150527092844


        ## FTP message: 'mdtm'
20150527092844


        ## FTP message: 'ls'
20150527092844


        ## FTP message: 'mdtm'
20150527092844


        ## FTP message: 'ls'
20150527092844


        ## FTP message: 'mdtm'
20150527092844


        ## FTP message: 'ls'
20150527092844


        ## FTP message: 'mdtm'
20150527092844


        ## FTP message: 'ls'
20150527092844


        ## FTP message: 'mdtm'
20150527092844


        ## FTP message: 'ls'
20150527092844


        ## FTP message: 'mdtm'
20150527092844


        ## FTP message: 'ls'
20150527092844


        ## FTP message: 'mdtm'
20150527092844


        ## FTP message: 'ls'
20150527092844


        ## FTP message: 'mdtm'
20150527092947


        ## FTP message: 'ls'
20150527092947


        ## FTP message: 'mdtm'
20150527092950


        ## FTP message: 'ls'
20150527092950


        ## FTP message: 'mdtm'
20150527093006


        ## FTP message: 'ls'
20150527093006


        ## FTP message: 'mdtm'
20150527093045


        ## FTP message: 'ls'
20150527093045


        ## FTP message: 'mdtm'
20150527093045


        ## FTP message: 'ls'
20150527093045


        ## FTP message: 'mdtm'
20150527093045


        ## FTP message: 'ls'
20150527093045


        ## FTP message: 'mdtm'
20150527093045


        ## FTP message: 'ls'
20150527093045


        ## FTP message: 'mdtm'
20150527093119


        ## FTP message: 'ls'
20150527093119


        ## FTP message: 'mdtm'
20150527093204


        ## FTP message: 'ls'
20150527093204


        ## FTP message: 'mdtm'
20150527093205


        ## FTP message: 'ls'
20150527093205


        ## FTP message: 'mdtm'
20150527093206


        ## FTP message: 'ls'
20150527093206


        ## FTP message: 'mdtm'
20150527093206


        ## FTP message: 'ls'
20150527093206


        ## FTP message: 'mdtm'
20150527093207


        ## FTP message: 'ls'
20150527093207


        ## FTP message: 'mdtm'
20150527093208


        ## FTP message: 'ls'
20150527093208


        ## FTP message: 'mdtm'
20150527093303


        ## FTP message: 'ls'
20150527093303


        ## FTP message: 'mdtm'
20150527093504


        ## FTP message: 'ls'
20150527093504


        ## FTP message: 'mdtm'
20150527093505


        ## FTP message: 'ls'
20150527093505


        ## FTP message: 'mdtm'
20150527093507


        ## FTP message: 'ls'
20150527093507


        ## FTP message: 'mdtm'
20150527093508


        ## FTP message: 'ls'
20150527093508


        ## FTP message: 'mdtm'
20150527093509


        ## FTP message: 'ls'
20150527093509


        ## FTP message: 'mdtm'
20150527093622


        ## FTP message: 'ls'
20150527093622


        ## FTP message: 'mdtm'
20150527093642


        ## FTP message: 'ls'
20150527093642


        ## FTP message: 'mdtm'
20150527093705


        ## FTP message: 'ls'
20150527093705


        ## FTP message: 'mdtm'
20150527093752


        ## FTP message: 'ls'
20150527093752


        ## FTP message: 'mdtm'
20150527093803


        ## FTP message: 'ls'
20150527093803


        ## FTP message: 'mdtm'
20150527093804


        ## FTP message: 'ls'
20150527093804


        ## FTP message: 'mdtm'
20150527093805


        ## FTP message: 'ls'
20150527093805


        ## FTP message: 'mdtm'
20150527093850


        ## FTP message: 'ls'
20150527093850


        ## FTP message: 'mdtm'
20150527093851


        ## FTP message: 'ls'
20150527093851


        ## FTP message: 'mdtm'
20150527093851


        ## FTP message: 'ls'
20150527093851


        ## FTP message: 'mdtm'
20150527093851


        ## FTP message: 'ls'
20150527093851


        ## FTP message: 'mdtm'
20150527093851


        ## FTP message: 'ls'
20150527093851


        ## FTP message: 'mdtm'
20150527093951


        ## FTP message: 'ls'
20150527093951


        ## FTP message: 'mdtm'
20150527094004


        ## FTP message: 'ls'
20150527094004


        ## FTP message: 'mdtm'
20150527094103


        ## FTP message: 'ls'
20150527094103


        ## FTP message: 'mdtm'
20150527094104


        ## FTP message: 'ls'
20150527094104


        ## FTP message: 'mdtm'
20150527094150


        ## FTP message: 'ls'
20150527094150


        ## FTP message: 'mdtm'
20150527094150


        ## FTP message: 'ls'
20150527094150


        ## FTP message: 'mdtm'
20150527094150


        ## FTP message: 'ls'
20150527094150


        ## FTP message: 'mdtm'
20150527094151


        ## FTP message: 'ls'
20150527094151


        ## FTP message: 'mdtm'
20150527094303


        ## FTP message: 'ls'
20150527094303


        ## FTP message: 'mdtm'
20150527094304


        ## FTP message: 'ls'
20150527094304


        ## FTP message: 'mdtm'
20150527094352


        ## FTP message: 'ls'
20150527094352


        ## FTP message: 'mdtm'
20150527094451


        ## FTP message: 'ls'
20150527094451


        ## FTP message: 'mdtm'
20150527094451


        ## FTP message: 'ls'
20150527094451


        ## FTP message: 'mdtm'
20150527094451


        ## FTP message: 'ls'
20150527094451


        ## FTP message: 'mdtm'
20150527094504


        ## FTP message: 'ls'
20150527094504


        ## FTP message: 'mdtm'
20150527094506


        ## FTP message: 'ls'
20150527094506


        ## FTP message: 'mdtm'
20150527094651


        ## FTP message: 'ls'
20150527094651


        ## FTP message: 'mdtm'
20150527094651


        ## FTP message: 'ls'
20150527094651


        ## FTP message: 'mdtm'
20150527094749


        ## FTP message: 'ls'
20150527094749


        ## FTP message: 'mdtm'
20150527094752


        ## FTP message: 'ls'
20150527094752


        ## FTP message: 'mdtm'
20150527094804


        ## FTP message: 'ls'
20150527094804


        ## FTP message: 'mdtm'
20150527094804


        ## FTP message: 'ls'
20150527094804


        ## FTP message: 'mdtm'
20150527094805


        ## FTP message: 'ls'
20150527094805


        ## FTP message: 'mdtm'
20150527094806


        ## FTP message: 'ls'
20150527094806


        ## FTP message: 'mdtm'
20150527094806


        ## FTP message: 'ls'
20150527094806


        ## FTP message: 'mdtm'
20150527094903


        ## FTP message: 'ls'
20150527094903


        ## FTP message: 'mdtm'
20150527094904


        ## FTP message: 'ls'
20150527094904


        ## FTP message: 'mdtm'
20150527094949


        ## FTP message: 'ls'
20150527094949


        ## FTP message: 'mdtm'
20150527095006


        ## FTP message: 'ls'
20150527095006


        ## FTP message: 'mdtm'
20150527095154


        ## FTP message: 'ls'
20150527095154


        ## FTP message: 'mdtm'
20150527095156


        ## FTP message: 'ls'
20150527095156


        ## FTP message: 'mdtm'
20150527095354


        ## FTP message: 'ls'
20150527095354


        ## FTP message: 'mdtm'
20150527095416


        ## FTP message: 'ls'
20150527095416


        ## FTP message: 'mdtm'
20150527095418


        ## FTP message: 'ls'
20150527095418


        ## FTP message: 'mdtm'
20150527095419


        ## FTP message: 'ls'
20150527095419


        ## FTP message: 'mdtm'
20150527095420


        ## FTP message: 'ls'
20150527095420


        ## FTP message: 'mdtm'
20150527095420


        ## FTP message: 'ls'
20150527095420


        ## FTP message: 'mdtm'
20150527095421


        ## FTP message: 'ls'
20150527095421


        ## FTP message: 'mdtm'
20150527095424


        ## FTP message: 'ls'
20150527095424


        ## FTP message: 'mdtm'
20150527095425


        ## FTP message: 'ls'
20150527095425


        ## FTP message: 'mdtm'
20150527095500


        ## FTP message: 'ls'
20150527095500


        ## FTP message: 'mdtm'
20150527095551


        ## FTP message: 'ls'
20150527095551


        ## FTP message: 'mdtm'
20150527095553


        ## FTP message: 'ls'
20150527095553


        ## FTP message: 'mdtm'
20150527095604


        ## FTP message: 'ls'
20150527095604


        ## FTP message: 'mdtm'
20150527095605


        ## FTP message: 'ls'
20150527095605


        ## FTP message: 'mdtm'
20150527095606


        ## FTP message: 'ls'
20150527095606


        ## FTP message: 'mdtm'
20150527095606


        ## FTP message: 'ls'
20150527095606


        ## FTP message: 'mdtm'
20150527095608


        ## FTP message: 'ls'
20150527095608


        ## FTP message: 'mdtm'
20150527095609


        ## FTP message: 'ls'
20150527095609


        ## FTP message: 'mdtm'
20150527095614


        ## FTP message: 'ls'
20150527095614


        ## FTP message: 'mdtm'
20150527095659


        ## FTP message: 'ls'
20150527095659


        ## FTP message: 'mdtm'
20150527095659


        ## FTP message: 'ls'
20150527095659


        ## FTP message: 'mdtm'
20150527095659


        ## FTP message: 'ls'
20150527095659


        ## FTP message: 'mdtm'
20150527095659


        ## FTP message: 'ls'
20150527095659


        ## FTP message: 'mdtm'
20150527095905


        ## FTP message: 'ls'
20150527095905


        ## FTP message: 'mdtm'
20150527095944


        ## FTP message: 'ls'
20150527095944


        ## FTP message: 'mdtm'
20150527100113


        ## FTP message: 'ls'
20150527100113


        ## FTP message: 'mdtm'
20150527100151


        ## FTP message: 'ls'
20150527100151


        ## FTP message: 'mdtm'
20150527100304


        ## FTP message: 'ls'
20150527100304


        ## FTP message: 'mdtm'
20150527100306


        ## FTP message: 'ls'
20150527100306


        ## FTP message: 'mdtm'
20150527100306


        ## FTP message: 'ls'
20150527100306


        ## FTP message: 'mdtm'
20150527100416


        ## FTP message: 'ls'
20150527100416


        ## FTP message: 'mdtm'
20150527100417


        ## FTP message: 'ls'
20150527100417


        ## FTP message: 'mdtm'
20150527100419


        ## FTP message: 'ls'
20150527100419


        ## FTP message: 'mdtm'
20150527100421


        ## FTP message: 'ls'
20150527100421


        ## FTP message: 'mdtm'
20150527100422


        ## FTP message: 'ls'
20150527100422


        ## FTP message: 'mdtm'
20150527100422


        ## FTP message: 'ls'
20150527100422


        ## FTP message: 'mdtm'
20150527100423


        ## FTP message: 'ls'
20150527100423


        ## FTP message: 'mdtm'
20150527100424


        ## FTP message: 'ls'
20150527100424


        ## FTP message: 'mdtm'
20150527100425


        ## FTP message: 'ls'
20150527100425


        ## FTP message: 'mdtm'
20150527100426


        ## FTP message: 'ls'
20150527100426


        ## FTP message: 'mdtm'
20150527100427


        ## FTP message: 'ls'
20150527100427


        ## FTP message: 'mdtm'
20150527100427


        ## FTP message: 'ls'
20150527100427


        ## FTP message: 'mdtm'
20150527100428


        ## FTP message: 'ls'
20150527100428


        ## FTP message: 'mdtm'
20150527100428


        ## FTP message: 'ls'
20150527100428


        ## FTP message: 'mdtm'
20150527100429


        ## FTP message: 'ls'
20150527100429


        ## FTP message: 'mdtm'
20150527100430


        ## FTP message: 'ls'
20150527100430


        ## FTP message: 'mdtm'
20150527100431


        ## FTP message: 'ls'
20150527100431


        ## FTP message: 'mdtm'
20150527100432


        ## FTP message: 'ls'
20150527100432


        ## FTP message: 'mdtm'
20150527100433


        ## FTP message: 'ls'
20150527100433


        ## FTP message: 'mdtm'
20150527100434


        ## FTP message: 'ls'
20150527100434


        ## FTP message: 'mdtm'
20150527100435


        ## FTP message: 'ls'
20150527100435


        ## FTP message: 'mdtm'
20150527100435


        ## FTP message: 'ls'
20150527100435


        ## FTP message: 'mdtm'
20150527100435


        ## FTP message: 'ls'
20150527100435


        ## FTP message: 'mdtm'
20150527100551


        ## FTP message: 'ls'
20150527100551


        ## FTP message: 'mdtm'
20150527100643


        ## FTP message: 'ls'
20150527100643


        ## FTP message: 'mdtm'
20150527100803


        ## FTP message: 'ls'
20150527100803


        ## FTP message: 'mdtm'
20150527100904


        ## FTP message: 'ls'
20150527100904


        ## FTP message: 'mdtm'
20150527101204


        ## FTP message: 'ls'
20150527101204


        ## FTP message: 'mdtm'
20150527101300


        ## FTP message: 'ls'
20150527101300


        ## FTP message: 'mdtm'
20150527101300


        ## FTP message: 'ls'
20150527101300


        ## FTP message: 'mdtm'
20150527101300


        ## FTP message: 'ls'
20150527101300


        ## FTP message: 'mdtm'
20150527101300


        ## FTP message: 'ls'
20150527101300


        ## FTP message: 'mdtm'
20150527101300


        ## FTP message: 'ls'
20150527101300


        ## FTP message: 'mdtm'
20150527101417


        ## FTP message: 'ls'
20150527101417


        ## FTP message: 'mdtm'
20150527101418


        ## FTP message: 'ls'
20150527101418


        ## FTP message: 'mdtm'
20150527101419


        ## FTP message: 'ls'
20150527101419


        ## FTP message: 'mdtm'
20150527101421


        ## FTP message: 'ls'
20150527101421


        ## FTP message: 'mdtm'
20150527101422


        ## FTP message: 'ls'
20150527101422


        ## FTP message: 'mdtm'
20150527101422


        ## FTP message: 'ls'
20150527101422


        ## FTP message: 'mdtm'
20150527101503


        ## FTP message: 'ls'
20150527101503


        ## FTP message: 'mdtm'
20150527101556


        ## FTP message: 'ls'
20150527101556


        ## FTP message: 'mdtm'
20150527101606


        ## FTP message: 'ls'
20150527101606


        ## FTP message: 'mdtm'
20150527101607


        ## FTP message: 'ls'
20150527101607


        ## FTP message: 'mdtm'
20150527101607


        ## FTP message: 'ls'
20150527101607


        ## FTP message: 'mdtm'
20150527101607


        ## FTP message: 'ls'
20150527101607


        ## FTP message: 'mdtm'
20150527101608


        ## FTP message: 'ls'
20150527101608


        ## FTP message: 'mdtm'
20150527101616


        ## FTP message: 'ls'
20150527101616


        ## FTP message: 'mdtm'
20150527101700


        ## FTP message: 'ls'
20150527101700


        ## FTP message: 'mdtm'
20150527101700


        ## FTP message: 'ls'
20150527101700


        ## FTP message: 'mdtm'
20150527101700


        ## FTP message: 'ls'
20150527101700


        ## FTP message: 'mdtm'
20150527101700


        ## FTP message: 'ls'
20150527101700


        ## FTP message: 'mdtm'
20150527101709


        ## FTP message: 'ls'
20150527101709


        ## FTP message: 'mdtm'
20150527101746


        ## FTP message: 'ls'
20150527101746


        ## FTP message: 'mdtm'
20150527101754


        ## FTP message: 'ls'
20150527101754


        ## FTP message: 'mdtm'
20150527101952


        ## FTP message: 'ls'
20150527101952


        ## FTP message: 'mdtm'
20150527101952


        ## FTP message: 'ls'
20150527101952


        ## FTP message: 'mdtm'
20150527102104


        ## FTP message: 'ls'
20150527102104


        ## FTP message: 'mdtm'
20150527102153


        ## FTP message: 'ls'
20150527102153


        ## FTP message: 'mdtm'
20150527091548


        ## FTP message: 'ls'
20150527091548


        ## FTP message: 'mdtm'
20150527091550


        ## FTP message: 'ls'
20150527091550


        ## FTP message: 'mdtm'
20150527092145


        ## FTP message: 'ls'
20150527092145


        ## FTP message: 'mdtm'
20150527092145


        ## FTP message: 'ls'
20150527092145


        ## FTP message: 'mdtm'
20150527092146


        ## FTP message: 'ls'
20150527092146


        ## FTP message: 'mdtm'
20150527092148


        ## FTP message: 'ls'
20150527092148


        ## FTP message: 'mdtm'
20150527092346


        ## FTP message: 'ls'
20150527092346


        ## FTP message: 'mdtm'
20150527092346


        ## FTP message: 'ls'
20150527092346


        ## FTP message: 'mdtm'
20150527092346


        ## FTP message: 'ls'
20150527092346


        ## FTP message: 'mdtm'
20150527092349


        ## FTP message: 'ls'
20150527092349


        ## FTP message: 'mdtm'
20150527092546


        ## FTP message: 'ls'
20150527092546


        ## FTP message: 'mdtm'
20150527092549


        ## FTP message: 'ls'
20150527092549


        ## FTP message: 'mdtm'
20150527092746


        ## FTP message: 'ls'
20150527092746


        ## FTP message: 'mdtm'
20150527092747


        ## FTP message: 'ls'
20150527092747


        ## FTP message: 'mdtm'
20150527092747


        ## FTP message: 'ls'
20150527092747


        ## FTP message: 'mdtm'
20150527092747


        ## FTP message: 'ls'
20150527092747


        ## FTP message: 'mdtm'
20150527092747


        ## FTP message: 'ls'
20150527092747


        ## FTP message: 'mdtm'
20150527092747


        ## FTP message: 'ls'
20150527092747


        ## FTP message: 'mdtm'
20150527092747


        ## FTP message: 'ls'
20150527092747


        ## FTP message: 'mdtm'
20150527092747


        ## FTP message: 'ls'
20150527092747


        ## FTP message: 'mdtm'
20150527092748


        ## FTP message: 'ls'
20150527092748


        ## FTP message: 'mdtm'
20150527092748


        ## FTP message: 'ls'
20150527092748


        ## FTP message: 'mdtm'
20150527093148


        ## FTP message: 'ls'
20150527093148


        ## FTP message: 'mdtm'
20150527093148


        ## FTP message: 'ls'
20150527093148


        ## FTP message: 'mdtm'
20150527093148


        ## FTP message: 'ls'
20150527093148


        ## FTP message: 'mdtm'
20150527093149


        ## FTP message: 'ls'
20150527093149


        ## FTP message: 'mdtm'
20150527093149


        ## FTP message: 'ls'
20150527093149


        ## FTP message: 'mdtm'
20150527093149


        ## FTP message: 'ls'
20150527093149


        ## FTP message: 'mdtm'
20150527093151


        ## FTP message: 'ls'
20150527093151


        ## FTP message: 'mdtm'
20150527093348


        ## FTP message: 'ls'
20150527093348


        ## FTP message: 'mdtm'
20150527093348


        ## FTP message: 'ls'
20150527093348


        ## FTP message: 'mdtm'
20150527093348


        ## FTP message: 'ls'
20150527093348


        ## FTP message: 'mdtm'
20150527093348


        ## FTP message: 'ls'
20150527093348


        ## FTP message: 'mdtm'
20150527093348


        ## FTP message: 'ls'
20150527093348


        ## FTP message: 'mdtm'
20150527093348


        ## FTP message: 'ls'
20150527093348


        ## FTP message: 'mdtm'
20150527093351


        ## FTP message: 'ls'
20150527093351


        ## FTP message: 'mdtm'
20150527093551


        ## FTP message: 'ls'
20150527093551


        ## FTP message: 'mdtm'
20150527093748


        ## FTP message: 'ls'
20150527093748


        ## FTP message: 'mdtm'
20150527093749


        ## FTP message: 'ls'
20150527093749


        ## FTP message: 'mdtm'
20150527093749


        ## FTP message: 'ls'
20150527093749


        ## FTP message: 'mdtm'
20150527093749


        ## FTP message: 'ls'
20150527093749


        ## FTP message: 'mdtm'
20150527093750


        ## FTP message: 'ls'
20150527093750


        ## FTP message: 'mdtm'
20150527093750


        ## FTP message: 'ls'
20150527093750


        ## FTP message: 'mdtm'
20150527094149


        ## FTP message: 'ls'
20150527094149


        ## FTP message: 'mdtm'
20150527094549


        ## FTP message: 'ls'
20150527094549


        ## FTP message: 'mdtm'
20150527094549


        ## FTP message: 'ls'
20150527094549


        ## FTP message: 'mdtm'
20150527094549


        ## FTP message: 'ls'
20150527094549


        ## FTP message: 'mdtm'
20150527094549


        ## FTP message: 'ls'
20150527094549


        ## FTP message: 'mdtm'
20150527094549


        ## FTP message: 'ls'
20150527094549


        ## FTP message: 'mdtm'
20150527094552


        ## FTP message: 'ls'
20150527094552


        ## FTP message: 'mdtm'
20150527094749


        ## FTP message: 'ls'
20150527094749


        ## FTP message: 'mdtm'
20150527094752


        ## FTP message: 'ls'
20150527094752


        ## FTP message: 'mdtm'
20150527094949


        ## FTP message: 'ls'
20150527094949


        ## FTP message: 'mdtm'
20150527094949


        ## FTP message: 'ls'
20150527094949


        ## FTP message: 'mdtm'
20150527094951


        ## FTP message: 'ls'
20150527094951


        ## FTP message: 'mdtm'
20150527095149


        ## FTP message: 'ls'
20150527095149


        ## FTP message: 'mdtm'
20150527095150


        ## FTP message: 'ls'
20150527095150


        ## FTP message: 'mdtm'
20150527095150


        ## FTP message: 'ls'
20150527095150


        ## FTP message: 'mdtm'
20150527095152


        ## FTP message: 'ls'
20150527095152


        ## FTP message: 'mdtm'
20150527095152


        ## FTP message: 'ls'
20150527095152


        ## FTP message: 'mdtm'
20150527095153


        ## FTP message: 'ls'
20150527095153


        ## FTP message: 'mdtm'
20150527095352


        ## FTP message: 'ls'
20150527095352


        ## FTP message: 'mdtm'
20150527095353


        ## FTP message: 'ls'
20150527095353


        ## FTP message: 'mdtm'
20150527095353


        ## FTP message: 'ls'
20150527095353


        ## FTP message: 'mdtm'
20150527095353


        ## FTP message: 'ls'
20150527095353


        ## FTP message: 'mdtm'
20150527095353


        ## FTP message: 'ls'
20150527095353


        ## FTP message: 'mdtm'
20150527095354


        ## FTP message: 'ls'
20150527095354


        ## FTP message: 'mdtm'
20150527095354


        ## FTP message: 'ls'
20150527095354


        ## FTP message: 'mdtm'
20150527095356


        ## FTP message: 'ls'
20150527095356


        ## FTP message: 'mdtm'
20150527095550


        ## FTP message: 'ls'
20150527095550


        ## FTP message: 'mdtm'
20150527095550


        ## FTP message: 'ls'
20150527095550


        ## FTP message: 'mdtm'
20150527095753


        ## FTP message: 'ls'
20150527095753


        ## FTP message: 'mdtm'
20150527095951


        ## FTP message: 'ls'
20150527095951


        ## FTP message: 'mdtm'
20150527095951


        ## FTP message: 'ls'
20150527095951


        ## FTP message: 'mdtm'
20150527095952


        ## FTP message: 'ls'
20150527095952


        ## FTP message: 'mdtm'
20150527095952


        ## FTP message: 'ls'
20150527095952


        ## FTP message: 'mdtm'
20150527095952


        ## FTP message: 'ls'
20150527095952


        ## FTP message: 'mdtm'
20150527095953


        ## FTP message: 'ls'
20150527095953


        ## FTP message: 'mdtm'
20150527100151


        ## FTP message: 'ls'
20150527100151


        ## FTP message: 'mdtm'
20150527100151


        ## FTP message: 'ls'
20150527100151


        ## FTP message: 'mdtm'
20150527100151


        ## FTP message: 'ls'
20150527100151


        ## FTP message: 'mdtm'
20150527100151


        ## FTP message: 'ls'
20150527100151


        ## FTP message: 'mdtm'
20150527100151


        ## FTP message: 'ls'
20150527100151


        ## FTP message: 'mdtm'
20150527100154


        ## FTP message: 'ls'
20150527100154


        ## FTP message: 'mdtm'
20150527100350


        ## FTP message: 'ls'
20150527100350


        ## FTP message: 'mdtm'
20150527100350


        ## FTP message: 'ls'
20150527100350


        ## FTP message: 'mdtm'
20150527100350


        ## FTP message: 'ls'
20150527100350


        ## FTP message: 'mdtm'
20150527100350


        ## FTP message: 'ls'
20150527100350


        ## FTP message: 'mdtm'
20150527100350


        ## FTP message: 'ls'
20150527100350


        ## FTP message: 'mdtm'
20150527100351


        ## FTP message: 'ls'
20150527100351


        ## FTP message: 'mdtm'
20150527100353


        ## FTP message: 'ls'
20150527100353


        ## FTP message: 'mdtm'
20150527100550


        ## FTP message: 'ls'
20150527100550


        ## FTP message: 'mdtm'
20150527100551


        ## FTP message: 'ls'
20150527100551


        ## FTP message: 'mdtm'
20150527100552


        ## FTP message: 'ls'
20150527100552


        ## FTP message: 'mdtm'
20150527100552


        ## FTP message: 'ls'
20150527100552


        ## FTP message: 'mdtm'
20150527100552


        ## FTP message: 'ls'
20150527100552


        ## FTP message: 'mdtm'
20150527100555


        ## FTP message: 'ls'
20150527100555


        ## FTP message: 'mdtm'
20150527100951


        ## FTP message: 'ls'
20150527100951


        ## FTP message: 'mdtm'
20150527100954


        ## FTP message: 'ls'
20150527100954


        ## FTP message: 'mdtm'
20150527101151


        ## FTP message: 'ls'
20150527101151


        ## FTP message: 'mdtm'
20150527101151


        ## FTP message: 'ls'
20150527101151


        ## FTP message: 'mdtm'
20150527101152


        ## FTP message: 'ls'
20150527101152


        ## FTP message: 'mdtm'
20150527101152


        ## FTP message: 'ls'
20150527101152


        ## FTP message: 'mdtm'
20150527101154


        ## FTP message: 'ls'
20150527101154


        ## FTP message: 'mdtm'
20150527101553


        ## FTP message: 'ls'
20150527101553


        ## FTP message: 'mdtm'
20150527101553


        ## FTP message: 'ls'
20150527101553


        ## FTP message: 'mdtm'
20150527101955


        ## FTP message: 'ls'
20150527101955


        ## FTP message: 'mdtm'
20150527102152


        ## FTP message: 'ls'
20150527102152


        ## FTP message: 'mdtm'
20150527102152


        ## FTP message: 'ls'
20150527102152


        ## FTP message: 'mdtm'
20150527102153


        ## FTP message: 'ls'
20150527102153


        ## FTP message: 'mdtm'
20150527102153


        ## FTP message: 'ls'
20150527102153


        ## FTP message: 'mdtm'
20150527102153


        ## FTP message: 'ls'
20150527102153


        ## FTP message: 'mdtm'
20150527102153


        ## Contents of hash %files
$VAR1 = {
          '45450171' => 1432719126,
          '45451513' => 1432719530,
          '45456798' => 1432720986,
          '9205-000211673039' => 1432721030,
          '45457117' => 1432721075,
          '9205-000211667433' => 1432719470,
          '45457061' => 1432721067,
          '45457012' => 1432721062,
          '45452648' => 1432719891,
          '45451517' => 1432719531,
          '45457108' => 1432721074,
          '9205-000211676414' => 1432721512,
          '45459592' => 1432721580,
          '45451441' => 1432719484,
          '45449090' => 1432718924,
          '45459867' => 1432721662,
          '45454688' => 1432720460,
          '45452531' => 1432719832,
          '45448184' => 1432718684,
          '45457020' => 1432721063,
          '45459860' => 1432721661,
          '45460345' => 1432721768,
          '9205-000211667493' => 1432719949,
          '9205-000211666588' => 1432719111,
          '9205-000211662039' => 1432718150,
          '9205-000211670455' => 1432720434,
          '45456986' => 1432721061,
          '9205-000211676468' => 1432721995,
          '45449084' => 1432718924,
          '9205-000211673001' => 1432720792,
          '45455343' => 1432720619,
          '45455145' => 1432720568,
          '9205-000211664662' => 1432718867,
          '45457113' => 1432721075,
          '45457064' => 1432721068,
          '45456964' => 1432721057,
          '45454788' => 1432720500,
          '9205-000211664636' => 1432718626,
          '45456768' => 1432720984,
          '45453542' => 1432720144,
          '9205-000211662038' => 1432718148,
          '9205-000211667463' => 1432719709,
          '9205-000211670499' => 1432720791,
          '45450177' => 1432719127,
          '9205-000211664658' => 1432718867,
          '45454692' => 1432720461,
          '9205-000211673073' => 1432721152,
          '45460428' => 1432721820,
          '45453390' => 1432720084,
          '9205-000211670451' => 1432720433,
          '9205-000211664654' => 1432718866,
          '9205-000211667492' => 1432719949,
          '9205-000211662078' => 1432718506,
          '9205-000211670423' => 1432720189,
          '45455729' => 1432720784,
          '45460342' => 1432721767,
          '9205-000211667432' => 1432719469,
          '9205-000211673068' => 1432721150,
          '9205-000211673018' => 1432720911,
          '45454684' => 1432720458,
          '45459943' => 1432721703,
          '45450766' => 1432719308,
          '9205-000211673002' => 1432720792,
          '45450757' => 1432719305,
          '45457085' => 1432721071,
          '9205-000211676413' => 1432721511,
          '9205-000211670450' => 1432720432,
          '45460425' => 1432721820,
          '45455139' => 1432720566,
          '9205-000211667414' => 1432719228,
          '45451514' => 1432719531,
          '45455341' => 1432720619,
          '45459591' => 1432721580,
          '45454701' => 1432720464,
          '9205-000211664663' => 1432718868,
          '45450169' => 1432719125,
          '9205-000211667499' => 1432720069,
          '9205-000211666582' => 1432719108,
          '9205-000211670471' => 1432720550,
          '9205-000211662076' => 1432718505,
          '45450298' => 1432719183,
          '9205-000211670430' => 1432720310,
          '45449085' => 1432718924,
          '9205-000211676476' => 1432722113,
          '45449229' => 1432718987,
          '45458469' => 1432721344,
          '45457027' => 1432721064,
          '9205-000211670422' => 1432720189,
          '9205-000211673017' => 1432720911,
          '45457733' => 1432721151,
          '45450179' => 1432719128,
          '45453394' => 1432720086,
          '9205-000211673072' => 1432721152,
          '45454706' => 1432720465,
          '9205-000211667431' => 1432719469,
          '9205-000211673023' => 1432720914,
          '45457046' => 1432721066,
          '45459588' => 1432721580,
          '45456316' => 1432720873,
          '45459847' => 1432721658,
          '45455345' => 1432720619,
          '45450173' => 1432719126,
          '45450764' => 1432719307,
          '45453667' => 1432720189,
          '9205-000211662077' => 1432718505,
          '9205-000211673069' => 1432721151,
          '9205-000211673040' => 1432721030,
          '45449089' => 1432718924,
          '45457037' => 1432721065,
          '45460335' => 1432721766,
          '45452663' => 1432719904,
          '9205-000211676416' => 1432721514,
          '45459589' => 1432721580,
          '9205-000211676478' => 1432722113,
          '45452647' => 1432719891,
          '45449936' => 1432719079,
          '9205-000211673093' => 1432721391,
          '45458040' => 1432721203,
          '45449636' => 1432719045,
          '45452670' => 1432719906,
          '9205-000211667415' => 1432719228,
          '9205-000211676479' => 1432722113,
          '45455132' => 1432720564,
          '45451411' => 1432719472,
          '45449634' => 1432719045,
          '45460464' => 1432721829,
          '9205-000211676480' => 1432722113,
          '45448996' => 1432718871,
          '45460426' => 1432721820,
          '45460611' => 1432721866,
          '45455112' => 1432720553,
          '45455147' => 1432720569,
          '9205-000211667412' => 1432719228,
          '45450162' => 1432719124,
          '45450768' => 1432719309,
          '9205-000211664660' => 1432718867,
          '45451163' => 1432719402,
          '45454690' => 1432720460,
          '45456421' => 1432720911,
          '9205-000211664637' => 1432718626,
          '9205-000211670431' => 1432720310,
          '9205-000211664651' => 1432718749,
          '45448572' => 1432718748,
          '9205-000211664655' => 1432718867,
          '9205-000211670457' => 1432720434,
          '45460374' => 1432721776,
          '9205-000211676412' => 1432721511,
          '45449091' => 1432718924,
          '45451738' => 1432719604,
          '9205-000211673071' => 1432721152,
          '45453241' => 1432720011,
          '9205-000211664664' => 1432718868,
          '45455107' => 1432720551,
          '45457067' => 1432721068,
          '45453680' => 1432720206,
          '9205-000211664661' => 1432718867,
          '45455143' => 1432720566,
          '9205-000211670453' => 1432720433,
          '45453385' => 1432720084,
          '9205-000211670458' => 1432720436,
          '9205-000211670486' => 1432720673,
          '9205-000211664649' => 1432718746,
          '9205-000211673043' => 1432721033,
          '9205-000211673094' => 1432721394,
          '9205-000211673020' => 1432720911,
          '9205-000211670401' => 1432720072,
          '9205-000211670454' => 1432720433,
          '9205-000211673003' => 1432720793,
          '9205-000211664656' => 1432718867,
          '9205-000211670425' => 1432720191,
          '45453366' => 1432720072,
          '45454177' => 1432720316,
          '9205-000211667490' => 1432719949,
          '45455344' => 1432720619,
          '9205-000211666585' => 1432719109,
          '45457111' => 1432721075,
          '9205-000211676475' => 1432722112,
          '9205-000211667423' => 1432719351,
          '45459590' => 1432721580,
          '45455160' => 1432720574,
          '45456971' => 1432721059,
          '9205-000211670500' => 1432720792,
          '9205-000211662079' => 1432718508,
          '9205-000211670434' => 1432720313,
          '45451515' => 1432719531,
          '45460636' => 1432721874,
          '9205-000211667413' => 1432719228,
          '9205-000211670432' => 1432720312,
          '9205-000211676415' => 1432721512,
          '45449088' => 1432718924,
          '45461531' => 1432722113,
          '45455650' => 1432720745,
          '9205-000211664638' => 1432718629,
          '45457075' => 1432721070,
          '45459845' => 1432721657,
          '45461059' => 1432721992,
          '45449635' => 1432719045,
          '45454136' => 1432720314,
          '9205-000211667430' => 1432719469,
          '9205-000211667494' => 1432719952,
          '9205-000211676440' => 1432721753,
          '45452649' => 1432719891,
          '9205-000211673074' => 1432721155,
          '45453396' => 1432720086,
          '45453242' => 1432720011,
          '45449295' => 1432719006,
          '9205-000211667429' => 1432719468,
          '45460427' => 1432721820,
          '9205-000211667411' => 1432719228,
          '45454686' => 1432720459,
          '9205-000211673037' => 1432721030,
          '45457091' => 1432721072,
          '45451684' => 1432719591,
          '45452363' => 1432719784,
          '9205-000211676474' => 1432722112,
          '45448705' => 1432718785,
          '45452361' => 1432719783,
          '45457071' => 1432721069,
          '45449637' => 1432719045,
          '45456788' => 1432720986,
          '9205-000211667416' => 1432719231,
          '45454430' => 1432720434,
          '9205-000211673041' => 1432721030,
          '45448185' => 1432718684,
          '45451436' => 1432719483,
          '45452068' => 1432719664,
          '45460292' => 1432721756,
          '45457101' => 1432721073,
          '45453362' => 1432720069,
          '45449087' => 1432718924,
          '45451283' => 1432719425,
          '45456962' => 1432721056,
          '9205-000211666587' => 1432719109,
          '45454682' => 1432720456,
          '45448183' => 1432718684,
          '45459850' => 1432721659,
          '9205-000211673038' => 1432721030,
          '45452159' => 1432719710,
          '9205-000211667491' => 1432719949,
          '9205-000211670429' => 1432720309,
          '45461057' => 1432721992,
          '45448345' => 1432718703,
          '9205-000211673042' => 1432721031,
          '9205-000211670470' => 1432720550,
          '9205-000211670452' => 1432720433,
          '45451443' => 1432719485,
          '45450755' => 1432719304,
          '45455134' => 1432720565,
          '9205-000211667489' => 1432719949,
          '45457058' => 1432721067,
          '45453392' => 1432720085,
          '45449086' => 1432718924,
          '9205-000211667410' => 1432719228,
          '9205-000211670433' => 1432720312,
          '9205-000211676439' => 1432721753,
          '9205-000211666584' => 1432719108,
          '9205-000211673019' => 1432720911,
          '9205-000211673021' => 1432720911,
          '45452168' => 1432719710,
          '45460340' => 1432721767,
          '9205-000211664657' => 1432718867,
          '45458293' => 1432721283,
          '9205-000211666583' => 1432719108,
          '9205-000211666586' => 1432719109,
          '45451113' => 1432719382,
          '45461389' => 1432722064,
          '45449231' => 1432718990,
          '45459865' => 1432721662,
          '45452161' => 1432719710,
          '45452184' => 1432719711,
          '45459463' => 1432721524,
          '9205-000211670498' => 1432720791,
          '9205-000211664635' => 1432718626,
          '9205-000211667434' => 1432719470,
          '45451516' => 1432719531,
          '45460343' => 1432721767,
          '45457003' => 1432721062,
          '45448983' => 1432718867,
          '45452064' => 1432719663,
          '45453540' => 1432720143
        };


OK - File is 0 Minutes old|AGE=0Min;5;10;; file_count=280

